[
    {
        "name": "Tree Beast",
        "baseCost": "50",
        "baseDamage": "5",
        "upgrades": {
            "10": {
                "value": "100",
                "all": false,
                "cost": "500"
            },
            "25": {
                "value": "100",
                "all": false,
                "cost": "1,250"
            },
            "50": {
                "value": "100",
                "all": false,
                "cost": "5000"
            },
            "75": {
                "value": "150",
                "all": false,
                "cost": "40,000"
            }
        }
    },
    {
        "name": "Ivan, the Drunken Brawler",
        "baseCost": "250",
        "baseDamage": "22",
        "upgrades": {
            "10": {
                "value": "100",
                "all": false,
                "cost": "2,500"
            },
            "25": {
                "value": "100",
                "all": false,
                "cost": "6,250"
            },
            "50": {
                "value": "100",
                "all": false,
                "cost": "25,000"
            },
            "125": {
                "value": "150",
                "all": false,
                "cost": "10,000K"
            }
        }
    },
    {
        "name": "Brittany, Beach Princess",
        "baseCost": "1K",
        "baseDamage": "74",
        "upgrades": {
            "10": {
                "value": "100",
                "all": false,
                "cost": "10,000"
            },
            "25": {
                "value": "100",
                "all": false,
                "cost": "25,000"
            },
            "50": {
                "value": "100",
                "all": false,
                "cost": "100K"
            },
            "75": {
                "value": "150",
                "all": false,
                "cost": "800K"
            }
        }
    },
    {
        "name": "The Wandering Fisherman",
        "baseCost": "4K",
        "baseDamage": "245",
        "upgrades": {
            "10": {
                "value": "100",
                "all": false,
                "cost": "40,000"
            },
            "25": {
                "value": "100",
                "all": false,
                "cost": "100K"
            },
            "50": {
                "value": "100",
                "all": false,
                "cost": "400K"
            },
            "75": {
                "value": "25",
                "all": true,
                "cost": "3,200K"
            }
        }
    },
    {
        "name": "Betty Clicker",
        "baseCost": "20K",
        "baseDamage": "976",
        "upgrades": {
            "10": {
                "value": "20",
                "all": true,
                "cost": "200K"
            },
            "25": {
                "value": "20",
                "all": true,
                "cost": "500K"
            },
            "50": {
                "value": "20",
                "all": true,
                "cost": "2,000K"
            },
            "75": {
                "value": "20",
                "all": true,
                "cost": "16,000K"
            }
        }
    },
    {
        "name": "The Masked Samurai",
        "baseCost": "100K",
        "baseDamage": "3,725",
        "upgrades": {
            "10": {
                "value": "100",
                "all": false,
                "cost": "1,000K"
            },
            "25": {
                "value": "100",
                "all": false,
                "cost": "2,500K"
            },
            "50": {
                "value": "100",
                "all": false,
                "cost": "10,000K"
            },
            "75": {
                "value": "150",
                "all": false,
                "cost": "80,000K"
            }
        }
    },
    {
        "name": "Leon",
        "baseCost": "400K",
        "baseDamage": "10,859",
        "upgrades": {
            "10": {
                "value": "100",
                "all": false,
                "cost": "4,000K"
            },
            "25": {
                "value": "100",
                "all": false,
                "cost": "10,000K"
            },
            "50": {
                "value": "100",
                "all": false,
                "cost": "40,000K"
            },
            "75": {
                "value": "25",
                "all": true,
                "cost": "320M"
            }
        }
    },
    {
        "name": "The Great Forest Seer",
        "baseCost": "2,5M",
        "baseDamage": "47,143",
        "upgrades": {
            "10": {
                "value": "100",
                "all": false,
                "cost": "25,000K"
            },
            "25": {
                "value": "100",
                "all": false,
                "cost": "62,500K"
            },
            "50": {
                "value": "100",
                "all": false,
                "cost": "250M"
            },
            "75": {
                "value": "150",
                "all": false,
                "cost": "2,000M"
            }
        }
    },
    {
        "name": "Alexa, Assassin",
        "baseCost": "15M",
        "baseDamage": "186K",
        "upgrades": {
            "25": {
                "value": "125",
                "all": false,
                "cost": "375M"
            },
            "50": {
                "value": "125",
                "all": false,
                "cost": "1,500M"
            }
        }
    },
    {
        "name": "Natalia, Ice Apprentice",
        "baseCost": "100M",
        "baseDamage": "782K",
        "upgrades": {
            "10": {
                "value": "100",
                "all": false,
                "cost": "1,000M"
            },
            "25": {
                "value": "100",
                "all": false,
                "cost": "2,500M"
            },
            "50": {
                "value": "100",
                "all": false,
                "cost": "10,000M"
            },
            "75": {
                "value": "150",
                "all": false,
                "cost": "80,000M"
            }
        }
    },
    {
        "name": "Mercedes, Dutches of Blades",
        "baseCost": "800M",
        "baseDamage": "3,721K",
        "upgrades": {
            "10": {
                "value": "100",
                "all": false,
                "cost": "8,000M"
            },
            "25": {
                "value": "100",
                "all": false,
                "cost": "20,000M"
            },
            "50": {
                "value": "100",
                "all": false,
                "cost": "80,000M"
            },
            "75": {
                "value": "150",
                "all": false,
                "cost": "640B"
            }
        }
    },
    {
        "name": "Bobby, Bounty Hunter",
        "baseCost": "6,5B",
        "baseDamage": "17,010K",
        "upgrades": {
            "10": {
                "value": "100",
                "all": false,
                "cost": "65,000M"
            },
            "25": {
                "value": "100",
                "all": false,
                "cost": "162B"
            },
            "50": {
                "value": "100",
                "all": false,
                "cost": "650B"
            },
            "75": {
                "value": "150",
                "all": false,
                "cost": "5,200B"
            }
        }
    },
    {
        "name": "Broyle Lindeoven, Fire Mage",
        "baseCost": "50B",
        "baseDamage": "69,480K",
        "upgrades": {
            "10": {
                "value": "25",
                "all": true,
                "cost": "500B"
            },
            "25": {
                "value": "100",
                "all": false,
                "cost": "1,250B"
            },
            "50": {
                "value": "100",
                "all": false,
                "cost": "5,000B"
            },
            "75": {
                "value": "150",
                "all": false,
                "cost": "40,000B"
            }
        }
    },
    {
        "name": "Sir George II, King's Guard",
        "baseCost": "450B",
        "baseDamage": "460M",
        "upgrades": {
            "10": {
                "value": "100",
                "all": false,
                "cost": "4,500B"
            },
            "25": {
                "value": "100",
                "all": false,
                "cost": "11,250B"
            },
            "50": {
                "value": "100",
                "all": false,
                "cost": "45,000B"
            },
            "75": {
                "value": "150",
                "all": false,
                "cost": "360T"
            }
        }
    },
    {
        "name": "King Midas",
        "baseCost": "4T",
        "baseDamage": "3,017M",
        "upgrades": []
    },
    {
        "name": "Referi Jerator, Ice Wizard",
        "baseCost": "36T",
        "baseDamage": "20,009M",
        "upgrades": {
            "10": {
                "value": "100",
                "all": false,
                "cost": "360T"
            },
            "25": {
                "value": "100",
                "all": false,
                "cost": "900T"
            },
            "50": {
                "value": "100",
                "all": false,
                "cost": "3,600T"
            },
            "75": {
                "value": "150",
                "all": false,
                "cost": "28,800T"
            }
        }
    },
    {
        "name": "Abaddon",
        "baseCost": "320T",
        "baseDamage": "131B",
        "upgrades": {
            "10": {
                "value": "125",
                "all": false,
                "cost": "3,200T"
            },
            "25": {
                "value": "125",
                "all": false,
                "cost": "8,000T"
            },
            "50": {
                "value": "125",
                "all": false,
                "cost": "32,000T"
            }
        }
    },
    {
        "name": "Ma Zhu",
        "baseCost": "2,7q",
        "baseDamage": "814B",
        "upgrades": {
            "10": {
                "value": "100",
                "all": false,
                "cost": "27,000T"
            },
            "25": {
                "value": "100",
                "all": false,
                "cost": "67,500T"
            },
            "50": {
                "value": "100",
                "all": false,
                "cost": "270q"
            },
            "75": {
                "value": "150",
                "all": false,
                "cost": "2,160q"
            }
        }
    },
    {
        "name": "Amenhotep",
        "baseCost": "24q",
        "baseDamage": "5,335B",
        "upgrades": {
            "10": {
                "value": "100",
                "all": false,
                "cost": "240q"
            },
            "25": {
                "value": "20",
                "all": true,
                "cost": "600q"
            },
            "50": {
                "value": "20",
                "all": true,
                "cost": "2,400q"
            }
        }
    },
    {
        "name": "Beastlord",
        "baseCost": "300q",
        "baseDamage": "49,143B",
        "upgrades": {
            "10": {
                "value": "100",
                "all": false,
                "cost": "3,000q"
            },
            "25": {
                "value": "100",
                "all": false,
                "cost": "7,500q"
            },
            "50": {
                "value": "100",
                "all": false,
                "cost": "30,000q"
            },
            "75": {
                "value": "10",
                "all": true,
                "cost": "240Q"
            }
        }
    },
    {
        "name": "Athena, Goddess of War",
        "baseCost": "9Q",
        "baseDamage": "1,086T",
        "upgrades": {
            "10": {
                "value": "100",
                "all": false,
                "cost": "90,000q"
            },
            "25": {
                "value": "100",
                "all": false,
                "cost": "225Q"
            },
            "50": {
                "value": "100",
                "all": false,
                "cost": "900Q"
            },
            "100": {
                "value": "100",
                "all": false,
                "cost": "7,200Q"
            }
        }
    },
    {
        "name": "Aphrodite, Goddess of Love",
        "baseCost": "350Q",
        "baseDamage": "31,124T",
        "upgrades": {
            "10": {
                "value": "100",
                "all": false,
                "cost": "3,500Q"
            },
            "25": {
                "value": "100",
                "all": false,
                "cost": "8,750Q"
            },
            "50": {
                "value": "100",
                "all": false,
                "cost": "35,000Q"
            },
            "125": {
                "value": "150",
                "all": false,
                "cost": "2,800s"
            }
        }
    },
    {
        "name": "Shinatobe, Wind Deity",
        "baseCost": "14s",
        "baseDamage": "917q",
        "upgrades": {
            "10": {
                "value": "100",
                "all": false,
                "cost": "140s"
            },
            "25": {
                "value": "10",
                "all": true,
                "cost": "350s"
            },
            "50": {
                "value": "100",
                "all": false,
                "cost": "1,400s"
            },
            "75": {
                "value": "100",
                "all": false,
                "cost": "11,200s"
            }
        }
    },
    {
        "name": "Grant, the General",
        "baseCost": "4,199s",
        "baseDamage": "202Q",
        "upgrades": {
            "10": {
                "value": "25",
                "all": true,
                "cost": "41,999s"
            },
            "25": {
                "value": "100",
                "all": false,
                "cost": "104S"
            },
            "50": {
                "value": "25",
                "all": true,
                "cost": "419S"
            },
            "75": {
                "value": "100",
                "all": false,
                "cost": "3,359S"
            }
        }
    },
    {
        "name": "Frostleaf",
        "baseCost": "2,100S",
        "baseDamage": "74,698Q",
        "upgrades": {
            "10": {
                "value": "100",
                "all": false,
                "cost": "21,000S"
            },
            "25": {
                "value": "100",
                "all": false,
                "cost": "52,499S"
            },
            "50": {
                "value": "25",
                "all": true,
                "cost": "209O"
            }
        }
    }
]